^C:\USERS\R2D2\DOCUMENTS\UNI STUFF\YEAR 2\REAL TIME 3D GRAPHICS\LAB WORK\LAB WORK\DEBUG\CUBE.OBJ|C:\USERS\R2D2\DOCUMENTS\UNI STUFF\YEAR 2\REAL TIME 3D GRAPHICS\LAB WORK\LAB WORK\DEBUG\MAIN.OBJ|C:\USERS\R2D2\DOCUMENTS\UNI STUFF\YEAR 2\REAL TIME 3D GRAPHICS\LAB WORK\LAB WORK\DEBUG\RT3D.OBJ
C:\USERS\R2D2\DOCUMENTS\UNI STUFF\YEAR 2\REAL TIME 3D GRAPHICS\LAB WORK\DEBUG\LAB WORK.ILK
C:\USERS\R2D2\DOCUMENTS\UNI STUFF\YEAR 2\REAL TIME 3D GRAPHICS\LAB WORK\DEBUG\LAB WORK.EXE
C:\USERS\R2D2\DOCUMENTS\UNI STUFF\YEAR 2\REAL TIME 3D GRAPHICS\LAB WORK\DEBUG\LAB WORK.PDB
