^C:\USERS\R2D2\DOCUMENTS\UNI STUFF\YEAR 2\REAL TIME 3D GRAPHICS\LAB WORK\LAB WORK\DEBUG\CUBE.OBJ|C:\USERS\R2D2\DOCUMENTS\UNI STUFF\YEAR 2\REAL TIME 3D GRAPHICS\LAB WORK\LAB WORK\DEBUG\MAIN.OBJ|C:\USERS\R2D2\DOCUMENTS\UNI STUFF\YEAR 2\REAL TIME 3D GRAPHICS\LAB WORK\LAB WORK\DEBUG\RT3D.OBJ
C:\WINDOWS\GLOBALIZATION\SORTING\SORTDEFAULT.NLS
C:\WINDOWS\SYSWOW64\NTDLL.DLL
C:\WINDOWS\SYSWOW64\KERNELBASE.DLL
C:\WINDOWS\SYSTEM32\FLTLIB.DLL
C:\WINDOWS\SYSWOW64\KERNEL32.DLL
C:\WINDOWS\SYSWOW64\ADVAPI32.DLL
C:\WINDOWS\SYSWOW64\GDI32.DLL
C:\WINDOWS\SYSWOW64\USER32.DLL
C:\USERS\R2D2\DOCUMENTS\UNI STUFF\YEAR 2\REAL TIME 3D GRAPHICS\LAB WORK\LAB WORK\DEPENDENCIES\LIB\SDL.LIB
C:\USERS\R2D2\DOCUMENTS\UNI STUFF\YEAR 2\REAL TIME 3D GRAPHICS\LAB WORK\LAB WORK\DEPENDENCIES\LIB\SDLMAIN.LIB
C:\USERS\R2D2\DOCUMENTS\UNI STUFF\YEAR 2\REAL TIME 3D GRAPHICS\LAB WORK\LAB WORK\DEPENDENCIES\LIB\GLEW32.LIB
C:\PROGRAM FILES (X86)\MICROSOFT VISUAL STUDIO 11.0\VC\LIB\OPENGL32.LIB
C:\USERS\R2D2\DOCUMENTS\UNI STUFF\YEAR 2\REAL TIME 3D GRAPHICS\LAB WORK\LAB WORK\DEBUG\CUBE.OBJ
C:\USERS\R2D2\DOCUMENTS\UNI STUFF\YEAR 2\REAL TIME 3D GRAPHICS\LAB WORK\LAB WORK\DEBUG\MAIN.OBJ
C:\USERS\R2D2\DOCUMENTS\UNI STUFF\YEAR 2\REAL TIME 3D GRAPHICS\LAB WORK\LAB WORK\DEBUG\RT3D.OBJ
C:\WINDOWS\SYSTEM32\TZRES.DLL
C:\PROGRAM FILES (X86)\MICROSOFT VISUAL STUDIO 11.0\VC\LIB\MSVCPRTD.LIB
C:\PROGRAM FILES (X86)\MICROSOFT VISUAL STUDIO 11.0\VC\LIB\MSVCRTD.LIB
C:\PROGRAM FILES (X86)\MICROSOFT VISUAL STUDIO 11.0\VC\LIB\OLDNAMES.LIB
C:\PROGRAM FILES (X86)\WINDOWS KITS\8.0\LIB\WIN8\UM\X86\KERNEL32.LIB
C:\PROGRAM FILES (X86)\MICROSOFT VISUAL STUDIO 11.0\VC\LIB\MSVCRT.LIB
C:\PROGRAM FILES (X86)\MICROSOFT VISUAL STUDIO 11.0\VC\BIN\1033\LINKUI.DLL
C:\PROGRAM FILES (X86)\WINDOWS KITS\8.0\BIN\X86\RC.EXE
C:\PROGRAM FILES (X86)\MICROSOFT VISUAL STUDIO 11.0\VC\BIN\CVTRES.EXE
C:\WINDOWS\SYSTEM32\RSAENH.DLL
